[
  {
    "firstName": "JCC",
    "lastName": "Admin",
    "email": "Admin@JCCFoodStorage.com",
    "password": "$2a$10$PiGGqet5Ew/dcvS8XJYEgu23bNH3WG8p70mZ56pblh5a4wNtE5.YC",
    "id": "f83a1f0e-4787-4aad-9bc6-f3de5778c044",
    "secret": "5bb52131-0f75-472f-9603-59c3958740f2",
    "roles": [
      "admin",
      "user"
    ]
  },
  {
    "firstName": "JCC",
    "lastName": "User",
    "email": "User@JCCFoodStorage.com",
    "password": "$2a$10$k6xhB3cLFvHOCaThSeBTX.AnvRjJGeyqdmwfFzyz23Qo0rWEYcvCq",
    "id": "e06b5808-f404-47cd-88c5-5ecabd43f2e9",
    "secret": "c24d694e-7bc4-40c3-bf9d-de50eab6a614",
    "roles": [
      "user"
    ]
  }
]